<svg width="240" height="241" viewBox="0 0 240 241" fill="none" xmlns="http://www.w3.org/2000/svg">
<path d="M181.488 42.452C157.728 28.868 136.704 40.052 126.144 51.956C115.584 63.86 107.76 75.908 94.5601 78.116C81.3601 80.324 61.2961 74.708 46.3681 85.268C31.4401 95.828 31.4881 123.716 43.2961 139.556C55.1041 155.396 85.7281 162.98 121.008 168.068C133.68 169.988 146.592 169.268 158.976 165.956L175.008 160.148C182.832 156.548 189.408 152.564 194.976 149.3C203.424 144.308 206.4 132.116 208.032 123.236C210.384 109.892 210.192 96.212 207.456 82.916C203.904 66.116 195.84 50.66 181.488 42.452Z" fill="#5187D8"/>
<g opacity="0.8">
<path opacity="0.8" d="M181.488 42.452C157.728 28.868 136.704 40.052 126.144 51.956C115.584 63.86 107.76 75.908 94.5601 78.116C81.3601 80.324 61.2961 74.708 46.3681 85.268C31.4401 95.828 31.4881 123.716 43.2961 139.556C55.1041 155.396 85.7281 162.98 121.008 168.068C133.68 169.988 146.592 169.268 158.976 165.956L175.008 160.148C182.832 156.548 189.408 152.564 194.976 149.3C203.424 144.308 206.4 132.116 208.032 123.236C210.384 109.892 210.192 96.212 207.456 82.916C203.904 66.116 195.84 50.66 181.488 42.452Z" fill="white"/>
</g>
<g opacity="0.8">
<path opacity="0.8" d="M217.776 59.108C217.248 50.228 211.2 47.348 207.36 51.572C205.488 53.684 204.96 56.612 205.968 59.252C207.312 62.9 209.616 69.38 211.008 74.42C213.024 81.908 212.352 87.668 214.752 84.596C217.152 81.524 218.448 70.292 217.776 59.108Z" fill="#5187D8"/>
</g>
<g opacity="0.8">
<path opacity="0.8" d="M217.776 59.108C217.248 50.228 211.2 47.348 207.36 51.572C205.488 53.684 204.96 56.612 205.968 59.252C207.312 62.9 209.616 69.38 211.008 74.42C213.024 81.908 212.352 87.668 214.752 84.596C217.152 81.524 218.448 70.292 217.776 59.108Z" fill="white"/>
</g>
<path d="M115.296 57.716C119.04 57.044 123.792 48.212 129.888 44.468C135.984 40.724 130.56 38.036 124.8 40.724C124.8 40.724 120.384 41.732 116.976 48.548C113.568 55.364 111.552 58.436 115.296 57.716Z" fill="#5187D8"/>
<g opacity="0.8">
<path opacity="0.8" d="M115.296 57.716C119.04 57.044 123.792 48.212 129.888 44.468C135.984 40.724 130.56 38.036 124.8 40.724C124.8 40.724 120.384 41.732 116.976 48.548C113.568 55.364 111.552 58.436 115.296 57.716Z" fill="white"/>
</g>
<path d="M109.152 52.964C112.176 51.764 115.488 43.508 112.032 43.94C111.168 44.084 110.4 44.66 110.064 45.476C108.96 47.924 106.464 54.068 109.152 52.964Z" fill="#5187D8"/>
<g opacity="0.8">
<path opacity="0.8" d="M109.152 52.964C112.176 51.764 115.488 43.508 112.032 43.94C111.168 44.084 110.4 44.66 110.064 45.476C108.96 47.924 106.464 54.068 109.152 52.964Z" fill="white"/>
</g>
<path d="M127.68 206.516C181.309 206.516 224.784 204.904 224.784 202.916C224.784 200.928 181.309 199.316 127.68 199.316C74.0509 199.316 30.5759 200.928 30.5759 202.916C30.5759 204.904 74.0509 206.516 127.68 206.516Z" fill="#5187D8"/>
<g opacity="0.8">
<path opacity="0.8" d="M127.68 206.516C181.309 206.516 224.784 204.904 224.784 202.916C224.784 200.928 181.309 199.316 127.68 199.316C74.0509 199.316 30.5759 200.928 30.5759 202.916C30.5759 204.904 74.0509 206.516 127.68 206.516Z" fill="white"/>
</g>
<path d="M174.336 67.22C173.952 67.22 173.616 67.556 173.616 67.94V71.636H160.464V67.94C160.464 67.556 160.128 67.22 159.744 67.22C159.36 67.22 159.024 67.556 159.024 67.94V160.916C159.024 161.3 159.36 161.636 159.744 161.636C160.128 161.636 160.464 161.3 160.464 160.916V140.132H173.616V160.916C173.616 161.3 173.952 161.636 174.336 161.636C174.72 161.636 175.056 161.3 175.056 160.916V67.94C175.056 67.556 174.72 67.22 174.336 67.22ZM173.616 138.692H160.464V134.036H173.616V138.692ZM173.616 132.596H160.464V127.94H173.616V132.596ZM173.616 126.452H160.464V121.796H173.616V126.452ZM173.616 120.356H160.464V115.748H173.616V120.356ZM173.616 114.26H160.464V109.7H173.616V114.26ZM173.616 108.212H160.464V103.604H173.616V108.212ZM173.616 102.164H160.464V97.508H173.616V102.164ZM173.616 96.068H160.464V91.412H173.616V96.068ZM173.616 89.972H160.464V85.316H173.616V89.972ZM173.616 83.828H160.464V79.172H173.616V83.828ZM173.616 77.732H160.464V73.076H173.616V77.732Z" fill="white"/>
<path d="M49.7279 142.196C49.7279 142.196 60.4799 127.46 55.2479 123.956C49.7759 120.356 47.2319 131.252 46.0319 136.628C43.5839 148.052 44.2559 150.5 45.9359 148.004L49.7279 142.196Z" fill="#5187D8"/>
<g opacity="0.5">
<path opacity="0.5" d="M49.7279 142.196C49.7279 142.196 60.4799 127.46 55.2479 123.956C49.7759 120.356 47.2319 131.252 46.0319 136.628C43.5839 148.052 44.2559 150.5 45.9359 148.004L49.7279 142.196Z" fill="white"/>
</g>
<path d="M53.76 151.268C53.76 151.268 68.736 140.804 64.896 135.812C60.912 130.628 54.912 140.132 52.08 144.836C46.032 154.868 45.888 157.364 48.288 155.54L53.76 151.268Z" fill="#5187D8"/>
<g opacity="0.5">
<path opacity="0.5" d="M53.76 151.268C53.76 151.268 68.736 140.804 64.896 135.812C60.912 130.628 54.912 140.132 52.08 144.836C46.032 154.868 45.888 157.364 48.288 155.54L53.76 151.268Z" fill="white"/>
</g>
<path d="M54.0961 163.364C54.0961 163.364 67.056 157.556 64.848 153.188C62.5441 148.628 56.5921 155.06 53.7601 158.228C47.6641 164.996 47.2321 166.916 49.2961 165.86L54.0961 163.364Z" fill="#5187D8"/>
<g opacity="0.5">
<path opacity="0.5" d="M54.0961 163.364C54.0961 163.364 67.056 157.556 64.848 153.188C62.5441 148.628 56.5921 155.06 53.7601 158.228C47.6641 164.996 47.2321 166.916 49.2961 165.86L54.0961 163.364Z" fill="white"/>
</g>
<path d="M54.8639 175.556C54.8639 175.556 67.8239 169.748 65.6159 165.38C63.3119 160.82 57.3599 167.252 54.5279 170.42C48.4319 177.188 47.9999 179.108 50.0639 178.052L54.8639 175.556Z" fill="#5187D8"/>
<g opacity="0.5">
<path opacity="0.5" d="M54.8639 175.556C54.8639 175.556 67.8239 169.748 65.6159 165.38C63.3119 160.82 57.3599 167.252 54.5279 170.42C48.4319 177.188 47.9999 179.108 50.0639 178.052L54.8639 175.556Z" fill="white"/>
</g>
<path d="M39.6479 148.34C39.6479 148.34 25.3919 136.916 21.6959 142.004C17.8559 147.284 28.6559 150.356 33.9359 151.796C45.2639 154.772 47.7119 154.196 45.2639 152.42L39.6479 148.34Z" fill="#5187D8"/>
<g opacity="0.5">
<path opacity="0.5" d="M39.6479 148.34C39.6479 148.34 25.3919 136.916 21.6959 142.004C17.8559 147.284 28.6559 150.356 33.9359 151.796C45.2639 154.772 47.7119 154.196 45.2639 152.42L39.6479 148.34Z" fill="white"/>
</g>
<path d="M40.08 157.892C40.08 157.892 23.856 149.492 21.216 155.252C18.48 161.204 29.664 162.068 35.136 162.404C46.8 163.076 49.104 162.02 46.368 160.772L40.08 157.892Z" fill="#5187D8"/>
<g opacity="0.5">
<path opacity="0.5" d="M40.08 157.892C40.08 157.892 23.856 149.492 21.216 155.252C18.48 161.204 29.664 162.068 35.136 162.404C46.8 163.076 49.104 162.02 46.368 160.772L40.08 157.892Z" fill="white"/>
</g>
<path d="M42.048 168.596C42.048 168.596 28.128 161.876 26.064 166.772C23.904 171.86 33.36 172.34 38.016 172.484C47.904 172.772 49.824 171.812 47.472 170.852L42.048 168.596Z" fill="#5187D8"/>
<g opacity="0.5">
<path opacity="0.5" d="M42.048 168.596C42.048 168.596 28.128 161.876 26.064 166.772C23.904 171.86 33.36 172.34 38.016 172.484C47.904 172.772 49.824 171.812 47.472 170.852L42.048 168.596Z" fill="white"/>
</g>
<path d="M42.7201 177.284C42.7201 177.284 29.5681 169.124 26.9761 173.78C24.2881 178.628 33.6481 180.116 38.2561 180.74C48.0481 182.084 50.0641 181.364 47.8561 180.116L42.7201 177.284Z" fill="#5187D8"/>
<g opacity="0.5">
<path opacity="0.5" d="M42.7201 177.284C42.7201 177.284 29.5681 169.124 26.9761 173.78C24.2881 178.628 33.6481 180.116 38.2561 180.74C48.0481 182.084 50.0641 181.364 47.8561 180.116L42.7201 177.284Z" fill="white"/>
</g>
<path d="M41.4719 133.844C41.4719 133.844 39.0239 112.436 30.9119 114.596C22.5119 116.9 29.5199 127.7 33.1199 132.98C40.7039 144.116 43.4879 145.364 42.9119 141.86L41.4719 133.844Z" fill="#5187D8"/>
<g opacity="0.5">
<path opacity="0.5" d="M41.4719 133.844C41.4719 133.844 39.0239 112.436 30.9119 114.596C22.5119 116.9 29.5199 127.7 33.1199 132.98C40.7039 144.116 43.4879 145.364 42.9119 141.86L41.4719 133.844Z" fill="white"/>
</g>
<path d="M47.856 193.316C47.808 193.316 47.808 193.316 47.856 193.316C47.664 193.268 47.52 193.124 47.568 192.98C49.104 182.132 48.72 168.404 46.512 156.26C44.64 145.7 32.448 122.804 32.304 122.564C32.208 122.42 32.304 122.228 32.448 122.18C32.592 122.132 32.784 122.18 32.832 122.324C32.976 122.564 45.216 145.556 47.088 156.212C49.248 168.452 49.68 182.228 48.144 193.124C48.096 193.22 48 193.316 47.856 193.316Z" fill="#5187D8"/>
<path d="M44.8798 149.396C44.8318 149.396 44.8318 149.396 44.7838 149.396C44.6398 149.348 44.5438 149.156 44.5918 149.012L50.6398 130.532C50.6878 130.388 50.8798 130.292 51.0238 130.34C51.1678 130.388 51.2638 130.58 51.2158 130.724L45.1198 149.156C45.1198 149.3 44.9758 149.396 44.8798 149.396Z" fill="#5187D8"/>
<path d="M46.7998 156.5C46.7518 156.5 46.6558 156.5 46.6078 156.452C46.4638 156.356 46.4638 156.164 46.5598 156.02L57.9358 141.716C58.0318 141.572 58.2238 141.572 58.3678 141.668C58.5118 141.764 58.5118 141.956 58.4158 142.1L47.0398 156.404C46.9918 156.452 46.8958 156.5 46.7998 156.5Z" fill="#5187D8"/>
<path d="M46.08 153.908C46.032 153.908 45.984 153.908 45.984 153.908L29.52 146.996C29.376 146.948 29.28 146.756 29.376 146.612C29.424 146.468 29.616 146.372 29.76 146.468L46.224 153.38C46.368 153.428 46.464 153.62 46.368 153.764C46.32 153.86 46.176 153.908 46.08 153.908Z" fill="#5187D8"/>
<path d="M48.24 166.196C48.144 166.196 48.048 166.148 48 166.1C47.904 165.956 47.904 165.764 48.048 165.668L60.432 156.212C60.576 156.116 60.768 156.116 60.864 156.26C60.96 156.404 60.96 156.596 60.816 156.692L48.432 166.1C48.336 166.148 48.288 166.196 48.24 166.196Z" fill="#5187D8"/>
<path d="M47.5681 162.116H47.5201L34.6081 159.428C34.4641 159.38 34.3201 159.236 34.3681 159.092C34.4161 158.948 34.5601 158.804 34.7041 158.852L47.6161 161.54C47.7601 161.588 47.9041 161.732 47.8561 161.876C47.8561 162.02 47.7121 162.116 47.5681 162.116Z" fill="#5187D8"/>
<path d="M48.1921 172.004C48.1921 172.004 48.1441 172.004 48.1921 172.004L38.1601 170.42C38.0161 170.372 37.8721 170.228 37.9201 170.084C37.9681 169.94 38.1121 169.796 38.2561 169.844L48.2401 171.428C48.3841 171.476 48.5281 171.62 48.4801 171.764C48.4801 171.908 48.3361 172.004 48.1921 172.004Z" fill="#5187D8"/>
<path d="M49.008 178.436C48.912 178.436 48.864 178.388 48.768 178.34C48.672 178.196 48.672 178.004 48.768 177.908L55.488 171.86C55.632 171.764 55.824 171.764 55.92 171.86C56.016 172.004 56.016 172.196 55.92 172.292L49.2 178.34C49.152 178.388 49.104 178.436 49.008 178.436Z" fill="#5187D8"/>
<path d="M48.9119 181.124C48.8639 181.124 48.8639 181.124 48.8159 181.124L37.2959 178.244C37.1519 178.196 37.0559 178.052 37.0559 177.86C37.1039 177.716 37.2479 177.62 37.4399 177.62L48.9599 180.5C49.1039 180.548 49.1999 180.692 49.1999 180.884C49.1519 181.028 49.0559 181.124 48.9119 181.124Z" fill="#5187D8"/>
<path d="M40.3679 184.34H53.9519V187.172H52.7999L50.3519 202.484H44.0159L41.5679 187.172H40.3679V184.34Z" fill="#5187D8"/>
<g opacity="0.5">
<path opacity="0.5" d="M40.3679 184.34H53.9519V187.172H52.7999L50.3519 202.484H44.0159L41.5679 187.172H40.3679V184.34Z" fill="white"/>
</g>
<path d="M62.7839 39.428C61.5839 38.372 59.9039 38.036 58.3679 38.564C55.7279 39.428 53.1839 43.268 53.8559 46.484C54.2879 48.74 56.3519 52.004 57.0239 53.3C57.6959 54.596 56.7839 56.66 54.7679 61.076C52.7519 65.492 51.9839 69.62 57.7919 73.268C63.5999 76.916 70.1279 71.108 73.4879 66.98C76.8479 62.852 70.9919 53.252 70.4639 49.22C69.9359 45.188 69.0719 37.412 62.7839 39.428Z" fill="#263238"/>
<path d="M76.3679 67.268C73.4399 70.196 69.4079 71.636 65.2799 71.252L63.8879 77.06L66.5279 90.26L83.7599 81.332L79.8719 71.252L76.3679 67.268Z" fill="#5187D8"/>
<path d="M66.5279 90.5C66.4799 90.5 66.4799 90.5 66.4319 90.5C66.3839 90.452 66.3359 90.404 66.2879 90.308L63.6479 77.108C63.6479 77.06 63.6479 77.06 63.6479 77.012L65.0399 71.204C65.0879 71.108 65.1839 71.012 65.2799 71.012C69.3119 71.396 73.2959 69.956 76.1759 67.076C76.2239 67.028 76.2719 66.98 76.3679 67.028C76.4159 67.028 76.5119 67.076 76.5599 67.124L80.0639 71.108L80.1119 71.156L83.9999 81.236C84.0479 81.332 83.9999 81.476 83.9039 81.524L66.6719 90.452C66.6239 90.5 66.5759 90.5 66.5279 90.5ZM64.1279 77.06L66.6719 89.924L83.4239 81.236L79.6319 71.396L76.3199 67.652C73.3919 70.484 69.4559 71.876 65.4239 71.54L64.1279 77.06Z" fill="#263238"/>
<g opacity="0.3">
<path opacity="0.3" d="M76.3679 67.268C73.4399 70.196 69.4079 71.636 65.2799 71.252L63.8879 77.06L66.5279 90.26L83.7599 81.332L79.8719 71.252L76.3679 67.268Z" fill="#263238"/>
</g>
<path d="M76.3679 67.268L73.7279 49.796L65.9039 51.38L62.0159 53.876C62.0159 53.876 57.3599 57.524 57.3599 57.908C57.3599 58.292 65.2319 71.444 65.2319 71.444C69.3599 71.732 73.4399 70.196 76.3679 67.268Z" fill="white"/>
<path d="M66.0959 71.7321C65.8079 71.7321 65.5199 71.7321 65.2319 71.6841C65.1359 71.6841 65.0879 71.6361 65.0399 71.5881C61.4399 65.5401 57.1199 58.2921 57.1199 57.9081C57.1199 57.7641 57.1199 57.4281 61.8719 53.6841L65.8079 51.1401C65.8559 51.1401 65.8559 51.0921 65.9039 51.0921L73.7279 49.5081C73.7759 49.5081 73.8719 49.5081 73.9199 49.5561C73.9679 49.6041 74.0159 49.6521 74.0159 49.7001L76.6559 67.1721C76.6559 67.2681 76.6559 67.3161 76.6079 67.3641C73.7759 70.1961 69.9839 71.7321 66.0959 71.7321ZM65.3759 71.2521C69.3599 71.4441 73.2479 69.9561 76.1279 67.1721L73.5359 50.0361L65.9999 51.5721L62.1119 54.0681C60.0479 55.6521 57.8399 57.5241 57.5999 57.9081C57.8879 58.6281 62.3519 66.1641 65.3759 71.2521Z" fill="#263238"/>
<g opacity="0.5">
<path opacity="0.5" d="M65.8559 66.5C65.8559 66.5 71.3759 62.42 70.8479 63.62C70.3199 64.82 66.5279 67.844 65.5199 67.94C64.5119 68.036 65.8559 66.5 65.8559 66.5Z" fill="#5187D8"/>
</g>
<path d="M66.0481 58.772L66.2401 58.964L67.5841 60.404L67.9681 65.876L69.6001 65.588L68.3041 60.5L70.3681 64.82L72.0961 63.092L68.4001 59.684L68.3041 56.996L66.3841 56.084" fill="#263238"/>
<path d="M63.0238 52.292C63.0238 52.292 61.3918 53.06 61.3918 54.548C61.3918 56.036 63.1678 59.636 64.2718 60.404C65.3758 61.172 67.2958 57.716 67.2958 57.716C67.2958 57.716 70.1758 59.108 70.9438 57.86C71.7118 56.612 69.1678 52.436 67.5358 51.332C65.9038 50.228 63.0238 52.292 63.0238 52.292Z" fill="white"/>
<path d="M64.6079 60.74C64.4159 60.74 64.2719 60.692 64.1279 60.596C62.9759 59.78 61.1519 56.132 61.1519 54.548C61.1519 53.012 62.6879 52.196 62.9279 52.1C63.2159 51.908 65.9999 49.94 67.6799 51.092C69.2159 52.196 72.0479 56.516 71.1359 57.956C70.3679 59.204 68.1119 58.34 67.3919 58.004C67.0079 58.628 65.9039 60.452 64.8479 60.692C64.7519 60.74 64.6559 60.74 64.6079 60.74ZM66.3839 51.188C64.9439 51.188 63.2159 52.484 63.1679 52.484C63.1679 52.484 63.1199 52.484 63.1199 52.532C63.1199 52.532 61.6319 53.252 61.6319 54.596C61.6319 55.988 63.3599 59.54 64.4159 60.26C64.5119 60.308 64.6079 60.356 64.7519 60.308C65.5679 60.116 66.7199 58.34 67.1039 57.62C67.1519 57.524 67.2959 57.476 67.4399 57.524C68.2079 57.86 70.2239 58.628 70.7999 57.716C71.4239 56.66 69.1199 52.628 67.4879 51.476C67.1039 51.236 66.7199 51.188 66.3839 51.188Z" fill="#263238"/>
<path d="M61.6321 50.756C62.0641 51.908 62.4481 53.06 62.7841 54.26C63.0241 55.508 66.4321 57.668 66.8161 57.764C67.2001 57.86 67.4401 53.732 67.4401 53.732L66.4321 48.836L61.6321 50.756Z" fill="white"/>
<g opacity="0.5">
<path opacity="0.5" d="M66.5279 49.412C66.3359 49.364 66.0959 49.316 65.9039 49.268L62.4479 50.468L62.0159 51.668C62.2559 52.292 62.5439 53.156 62.7359 53.876C63.3119 54.356 63.9839 54.644 64.7039 54.692C65.7599 54.788 66.6719 53.972 67.2959 52.964L66.5279 49.412Z" fill="#5187D8"/>
</g>
<path d="M66.8159 58.0521C66.7679 58.0521 66.7679 58.0521 66.7199 58.0521C66.2879 57.9081 62.8319 55.7 62.5439 54.356C62.2559 53.204 61.8719 52.004 61.4399 50.852C61.3919 50.708 61.4399 50.6121 61.5839 50.564L66.3839 48.692C66.4319 48.644 66.5279 48.692 66.5759 48.692C66.6239 48.74 66.6719 48.788 66.7199 48.836L67.7279 53.732V53.78C67.5839 56.372 67.3439 57.7641 67.0559 58.0041C66.9119 58.0521 66.8639 58.0521 66.8159 58.0521ZM61.9199 50.9C62.3519 52.004 62.6879 53.108 62.9759 54.212C63.1679 55.2681 65.9999 57.1401 66.7199 57.5241C66.8639 57.0441 67.0559 55.316 67.1519 53.828L66.1919 49.22L61.9199 50.9Z" fill="#263238"/>
<path d="M59.3761 48.596C59.3761 48.596 57.9841 47.492 57.9841 48.596C57.9841 49.7 59.2321 50.372 60.2401 50.372" fill="white"/>
<path d="M60.2401 50.612C59.0401 50.612 57.7441 49.844 57.7441 48.596C57.7441 48.164 57.9361 47.972 58.0801 47.924C58.5601 47.684 59.3281 48.26 59.5201 48.404C59.6161 48.5 59.6161 48.644 59.5681 48.74C59.4721 48.836 59.3281 48.836 59.2321 48.788C58.8961 48.548 58.4161 48.26 58.3201 48.356C58.2721 48.356 58.2721 48.452 58.2721 48.596C58.2721 49.604 59.4721 50.132 60.2881 50.132C60.4321 50.132 60.5281 50.228 60.5281 50.372C60.5281 50.516 60.3841 50.612 60.2401 50.612Z" fill="#263238"/>
<path d="M66.7681 44.948C66.7681 44.948 67.6321 43.556 67.9201 45.092C68.0161 46.1 67.7761 47.06 67.1521 47.876L66.7681 44.948Z" fill="white"/>
<path d="M67.1521 48.116H67.1041C67.0081 48.068 66.9601 48.02 66.9121 47.924L66.5281 45.044C66.5281 44.996 66.5281 44.948 66.5761 44.9C66.6721 44.756 67.1041 44.132 67.5841 44.228C68.0161 44.324 68.1121 44.948 68.1601 45.14C68.3041 46.196 68.0161 47.252 67.3441 48.068C67.2961 48.068 67.2481 48.116 67.1521 48.116ZM67.0561 45.044L67.3441 47.204C67.6801 46.58 67.7761 45.86 67.7281 45.14C67.6801 44.756 67.5361 44.66 67.5361 44.66C67.3921 44.612 67.2001 44.804 67.0561 45.044Z" fill="#263238"/>
<g opacity="0.5">
<path opacity="0.5" d="M59.3761 48.596C59.3761 48.596 57.9841 47.492 57.9841 48.596C57.9841 49.7 59.2321 50.372 60.2401 50.372" fill="#5187D8"/>
<path opacity="0.5" d="M60.2401 50.612C59.0401 50.612 57.7441 49.844 57.7441 48.596C57.7441 48.164 57.9361 47.972 58.0801 47.924C58.5601 47.684 59.3281 48.26 59.5201 48.404C59.6161 48.5 59.6161 48.644 59.5681 48.74C59.4721 48.836 59.3281 48.836 59.2321 48.788C58.8961 48.548 58.4161 48.26 58.3201 48.356C58.2721 48.356 58.2721 48.452 58.2721 48.596C58.2721 49.604 59.4721 50.132 60.2881 50.132C60.4321 50.132 60.5281 50.228 60.5281 50.372C60.5281 50.516 60.3841 50.612 60.2401 50.612Z" fill="#263238"/>
</g>
<g opacity="0.5">
<path opacity="0.5" d="M66.7681 44.948C66.7681 44.948 67.6321 43.556 67.9201 45.092C68.0161 46.1 67.7761 47.06 67.1521 47.876L66.7681 44.948Z" fill="#5187D8"/>
<path opacity="0.5" d="M67.1521 48.116H67.1041C67.0081 48.068 66.9601 48.02 66.9121 47.924L66.5281 45.044C66.5281 44.996 66.5281 44.948 66.5761 44.9C66.6721 44.756 67.1041 44.132 67.5841 44.228C68.0161 44.324 68.1121 44.948 68.1601 45.14C68.3041 46.196 68.0161 47.252 67.3441 48.068C67.2961 48.068 67.2481 48.116 67.1521 48.116ZM67.0561 45.044L67.3441 47.204C67.6801 46.58 67.7761 45.86 67.7281 45.14C67.6801 44.756 67.5361 44.66 67.5361 44.66C67.3921 44.612 67.2001 44.804 67.0561 45.044Z" fill="#263238"/>
</g>
<path d="M57.792 44.996C57.792 44.996 58.848 49.508 61.2 51.716C63.552 53.924 66 53.972 66.864 49.988C67.584 46.724 65.808 42.356 65.808 42.356C65.808 42.356 60.144 37.7 57.792 44.996Z" fill="white"/>
<g opacity="0.5">
<path opacity="0.5" d="M61.824 40.916L62.688 43.124C62.688 43.124 64.08 42.836 64.848 44.468C65.616 46.1 66.384 48.596 65.952 50.468C65.52 52.292 64.512 52.868 62.976 52.916C64.656 53.636 66.24 52.916 66.864 49.94C67.584 46.676 65.808 42.308 65.808 42.308C65.808 42.308 63.888 40.772 61.824 40.916Z" fill="#5187D8"/>
</g>
<path d="M64.128 53.444C63.168 53.444 62.112 52.916 61.008 51.86C58.656 49.604 57.6 45.188 57.552 45.044C57.552 44.996 57.552 44.948 57.552 44.9C58.272 42.644 59.424 41.252 60.96 40.82C63.408 40.1 65.856 42.116 65.952 42.212C66 42.26 66 42.26 66 42.308C66.096 42.5 67.776 46.772 67.056 50.084C66.576 52.388 65.568 53.156 64.8 53.396C64.608 53.396 64.368 53.444 64.128 53.444ZM58.032 44.996C58.176 45.572 59.232 49.508 61.344 51.524C62.544 52.676 63.744 53.156 64.656 52.868C65.568 52.58 66.24 51.572 66.576 49.892C67.2 46.916 65.76 42.98 65.568 42.452C65.232 42.164 63.072 40.628 61.056 41.204C59.76 41.684 58.752 42.932 58.032 44.996Z" fill="#263238"/>
<path d="M62.1119 47.348C62.2559 47.588 62.2079 47.876 62.0639 47.972C61.9199 48.068 61.6799 47.924 61.5359 47.684C61.3919 47.444 61.4399 47.156 61.5839 47.06C61.7279 46.964 61.9679 47.108 62.1119 47.348Z" fill="#263238"/>
<path d="M64.608 46.58C64.704 46.868 64.656 47.108 64.464 47.156C64.272 47.204 64.08 47.06 63.984 46.772C63.888 46.484 63.936 46.244 64.128 46.196C64.32 46.148 64.512 46.34 64.608 46.58Z" fill="#263238"/>
<path d="M63.5039 49.124C63.3599 49.124 63.1679 49.076 62.9759 49.028C62.9279 49.028 62.8799 48.932 62.8799 48.884C62.8799 48.836 62.9759 48.788 63.0239 48.788C63.3599 48.932 63.5999 48.932 63.7439 48.788C63.8879 48.692 63.8879 48.5 63.8879 48.452C63.6959 48.068 62.5919 45.668 63.3119 45.092C63.6959 44.756 64.3199 44.708 64.7519 44.996C64.7999 45.044 64.7999 45.092 64.7999 45.14C64.7519 45.188 64.7039 45.188 64.6559 45.188C64.3199 44.948 63.8399 44.996 63.5039 45.236C63.0719 45.572 63.6479 47.3 64.1279 48.308V48.356C64.1279 48.356 64.1279 48.74 63.8879 48.932C63.8399 49.076 63.6959 49.124 63.5039 49.124Z" fill="#263238"/>
<path d="M63.648 50.66C63.456 50.66 63.312 50.612 63.12 50.564C63.024 50.516 62.88 50.468 62.784 50.372C62.736 50.324 62.736 50.276 62.784 50.18C62.832 50.132 62.88 50.132 62.976 50.18C63.072 50.228 63.168 50.324 63.264 50.324C63.552 50.42 63.84 50.42 64.128 50.324C64.416 50.228 64.608 49.988 64.752 49.7C64.8 49.652 64.848 49.604 64.896 49.652C64.944 49.7 64.992 49.748 64.944 49.796C64.8 50.132 64.56 50.372 64.224 50.516C63.984 50.612 63.792 50.66 63.648 50.66Z" fill="#263238"/>
<path d="M60.096 47.06C60.096 47.06 60.048 47.06 60.096 47.06C60 47.06 59.952 46.964 60 46.916C60.192 46.1 60.528 45.62 60.96 45.476C61.488 45.332 61.968 45.764 61.968 45.764C62.016 45.812 62.016 45.908 61.968 45.956C61.92 46.004 61.824 46.004 61.776 45.956C61.776 45.956 61.392 45.572 61.008 45.716C60.672 45.812 60.384 46.244 60.24 46.964C60.192 47.012 60.144 47.06 60.096 47.06Z" fill="#263238"/>
<path d="M65.904 40.916C64.56 39.764 63.456 39.764 62.976 39.908C62.544 39.62 62.016 39.476 61.488 39.428C57.696 38.9 57.216 41.828 57.216 44.612C57.216 47.396 54.816 50.66 56.448 51.044C57.36 51.284 58.32 50.804 58.704 49.892C58.704 49.892 60.48 47.012 60.48 44.996C60.48 42.98 62.688 43.172 62.688 43.172C63.072 42.644 63.792 42.5 64.32 42.836C64.368 42.884 64.416 42.884 64.464 42.932C65.472 43.796 65.568 44.804 66.384 45.044C67.2 45.284 68.544 43.988 68.544 43.988C67.776 42.932 66.864 41.876 65.904 40.916Z" fill="#263238"/>
<path d="M56.5919 49.556C56.5439 49.556 56.4958 49.508 56.4958 49.46C56.4958 49.412 56.4959 49.316 56.5919 49.316C56.6399 49.316 57.7439 49.028 58.1759 47.444C58.3199 46.964 58.4159 46.34 58.4639 45.764C58.6559 44.372 58.8959 42.74 59.8559 41.78C61.2959 40.34 62.8799 41.588 62.8799 41.636C62.9279 41.684 62.9279 41.732 62.8799 41.828C62.8319 41.876 62.7839 41.876 62.6879 41.828C62.6399 41.78 61.2479 40.676 59.9519 41.972C59.0399 42.884 58.7999 44.468 58.6079 45.812C58.5119 46.436 58.4159 47.012 58.3199 47.54C57.8879 49.22 56.6399 49.556 56.5919 49.556Z" fill="white"/>
<path d="M56.88 46.964C56.88 46.964 56.832 46.964 56.88 46.964C56.784 46.964 56.736 46.916 56.784 46.82C56.88 46.052 56.88 45.38 56.88 44.804C56.88 43.508 56.88 42.644 57.984 41.54C60.096 39.428 61.824 41.108 61.872 41.108C61.92 41.156 61.92 41.252 61.872 41.3C61.824 41.348 61.728 41.348 61.68 41.3C61.632 41.252 60.096 39.812 58.176 41.732C57.12 42.788 57.12 43.556 57.12 44.852C57.12 45.428 57.12 46.052 57.024 46.868C56.976 46.916 56.928 46.964 56.88 46.964Z" fill="white"/>
<path d="M67.68 43.172C67.632 43.172 67.584 43.124 67.584 43.076C67.2 41.972 66.624 41.252 65.856 40.964C64.752 40.484 63.648 41.012 63.648 41.012C63.6 41.06 63.504 41.012 63.504 40.964C63.456 40.916 63.504 40.82 63.552 40.82C63.6 40.82 64.752 40.244 65.952 40.772C66.768 41.108 67.392 41.876 67.824 43.028C67.824 43.076 67.776 43.172 67.68 43.172Z" fill="white"/>
<path d="M57.3599 57.908L52.9919 75.428L65.7599 79.028L66.3839 76.772L57.9839 72.884L60.8159 62.804C60.8159 62.804 60.4319 60.932 58.4159 58.772" fill="white"/>
<g opacity="0.5">
<path opacity="0.5" d="M66.432 76.82L58.032 72.932L60.864 62.852C60.624 62.036 60.288 61.22 59.808 60.5L59.52 60.308V63.092C59.52 64.868 57.312 70.532 56.496 71.876C55.68 73.22 54.48 74.9 54.48 74.9L56.928 73.796L66.192 77.492L66.432 76.82Z" fill="#5187D8"/>
</g>
<path d="M65.76 79.3161H65.712L52.944 75.7161C52.8 75.6681 52.752 75.5721 52.8 75.4281L57.168 57.9081C57.216 57.7641 57.312 57.7161 57.456 57.7161C57.6 57.7641 57.648 57.8601 57.648 58.0041L53.328 75.2841L65.664 78.7881L66.192 76.9641L57.984 73.1721C57.888 73.1241 57.84 72.9801 57.84 72.8841L60.672 62.8521C60.576 62.5161 60.096 60.8361 58.368 59.0121C58.272 58.9161 58.272 58.7721 58.368 58.6761C58.464 58.5801 58.608 58.5801 58.704 58.6761C60.768 60.8361 61.152 62.7561 61.152 62.8041C61.152 62.8521 61.152 62.9001 61.152 62.9001L58.368 72.7881L66.576 76.5801C66.672 76.6281 66.72 76.7721 66.72 76.8681L66.096 79.1241C66.096 79.1721 66.048 79.2201 66 79.2681C65.856 79.3161 65.808 79.3161 65.76 79.3161Z" fill="#263238"/>
<path d="M93.264 63.188L83.568 61.172L73.728 49.748L75.168 58.916L81.216 64.676L93.408 65.252L93.264 63.188Z" fill="white"/>
<g opacity="0.5">
<path opacity="0.5" d="M73.728 49.748L74.88 57.092L75.648 59.396L75.744 59.492C76.032 59.204 77.616 57.524 78.048 57.524C78.48 57.524 83.04 61.508 82.416 61.844L81.744 62.18L93.216 64.052L93.312 63.188L83.664 61.172L73.728 49.748Z" fill="#5187D8"/>
</g>
<path d="M93.4079 65.492L81.2159 64.916C81.1679 64.916 81.1199 64.868 81.0719 64.868L75.0239 59.108C74.9759 59.06 74.9759 59.012 74.9759 58.964L73.5359 49.796C73.5359 49.7 73.5839 49.604 73.6799 49.556C73.7759 49.508 73.8719 49.556 73.9679 49.604L83.8079 60.932L93.4079 62.948C93.5039 62.948 93.5999 63.044 93.5999 63.188L93.7439 65.252C93.7439 65.3 93.7439 65.396 93.6959 65.444C93.5039 65.492 93.4559 65.492 93.4079 65.492ZM81.3119 64.484L93.1199 65.012L93.0239 63.38L83.5199 61.364C83.4719 61.364 83.4239 61.316 83.3759 61.268L74.0639 50.516L75.3599 58.772L81.3119 64.484Z" fill="#263238"/>
<path d="M183.504 160.34L60.3839 142.292C59.5679 142.148 58.9919 141.428 59.1359 140.612L69.4079 70.676C69.5039 69.86 70.2719 69.284 71.0879 69.428L73.4399 69.764C74.0639 69.86 74.6399 69.572 74.9279 69.044L77.9999 63.716C78.0959 63.524 78.2399 63.38 78.3839 63.284C79.1039 62.756 80.0159 62.516 80.8799 62.66L111.936 67.22C112.656 67.316 113.28 67.652 113.808 68.132C113.952 68.276 114.048 68.42 114.144 68.612L116.88 75.428C117.072 75.908 117.504 76.292 118.032 76.34L194.16 87.524C194.976 87.62 195.552 88.388 195.408 89.204L185.136 159.14C185.04 159.908 184.32 160.484 183.504 160.34Z" fill="#263238"/>
<path d="M183.696 160.58C183.6 160.58 183.504 160.58 183.456 160.58L60.3359 142.532C59.3759 142.388 58.7519 141.524 58.8959 140.564L69.1199 70.628C69.1679 70.148 69.4079 69.764 69.7919 69.476C70.1759 69.188 70.6079 69.092 71.0879 69.14L73.4399 69.476C73.9679 69.572 74.4479 69.332 74.6879 68.852L77.8079 63.476C77.9039 63.284 78.0479 63.092 78.2399 62.996C79.0079 62.42 79.9679 62.18 80.9279 62.324L111.936 66.884C112.704 66.98 113.376 67.316 113.904 67.844C114.048 67.988 114.192 68.18 114.288 68.42L117.024 75.236C117.168 75.668 117.552 75.956 117.984 76.004L194.16 87.188C195.12 87.332 195.744 88.196 195.648 89.156L185.376 159.092C185.28 159.956 184.56 160.58 183.696 160.58ZM70.8479 69.62C70.5599 69.62 70.3199 69.716 70.0799 69.86C69.7919 70.052 69.6479 70.34 69.5999 70.676L59.3759 140.66C59.2799 141.332 59.7599 142.004 60.4319 142.1L183.552 160.148C184.224 160.244 184.848 159.764 184.992 159.092L195.264 89.156C195.36 88.484 194.88 87.86 194.208 87.716L118.032 76.532C117.408 76.436 116.928 76.052 116.688 75.476L113.952 68.66C113.904 68.516 113.808 68.372 113.664 68.276C113.184 67.844 112.608 67.556 111.936 67.46L80.8799 62.9C80.0639 62.756 79.1999 62.996 78.5279 63.476C78.3839 63.572 78.2879 63.668 78.2399 63.812L75.1199 69.188C74.7839 69.812 74.0639 70.148 73.3919 70.052L71.0399 69.716C70.9919 69.62 70.8959 69.62 70.8479 69.62Z" fill="#263238"/>
<path d="M184.8 160.004H62.7839C61.296 160.004 60.0959 158.804 60.0959 157.316V89.012C60.0959 87.524 61.296 86.324 62.7839 86.324H63.1199C64.2239 86.324 65.2319 85.652 65.6159 84.644L67.488 79.988C67.68 79.46 68.0639 78.98 68.5439 78.692C69.0719 78.356 69.6959 78.212 70.2719 78.212H101.616C102.048 78.212 102.432 78.308 102.864 78.452C103.392 78.692 103.872 79.076 104.16 79.604L107.376 85.028C107.856 85.844 108.768 86.372 109.728 86.372H184.8C186.288 86.372 187.488 87.572 187.488 89.06V157.364C187.488 158.804 186.288 160.004 184.8 160.004Z" fill="#5187D8"/>
<g opacity="0.1">
<path opacity="0.1" d="M184.8 160.004H62.7839C61.296 160.004 60.0959 158.804 60.0959 157.316V89.012C60.0959 87.524 61.296 86.324 62.7839 86.324H63.1199C64.2239 86.324 65.2319 85.652 65.6159 84.644L67.488 79.988C67.68 79.46 68.0639 78.98 68.5439 78.692C69.0719 78.356 69.6959 78.212 70.2719 78.212H101.616C102.048 78.212 102.432 78.308 102.864 78.452C103.392 78.692 103.872 79.076 104.16 79.604L107.376 85.028C107.856 85.844 108.768 86.372 109.728 86.372H184.8C186.288 86.372 187.488 87.572 187.488 89.06V157.364C187.488 158.804 186.288 160.004 184.8 160.004Z" fill="#263238"/>
</g>
<path d="M184.8 160.244H62.784C61.152 160.244 59.856 158.948 59.856 157.316V89.012C59.856 87.38 61.152 86.084 62.784 86.084H63.12C64.128 86.084 65.04 85.46 65.424 84.548L67.296 79.892C67.536 79.316 67.92 78.788 68.496 78.5C69.072 78.164 69.696 77.972 70.368 77.972H101.712C102.144 77.972 102.624 78.068 103.008 78.212C103.584 78.452 104.112 78.884 104.448 79.46L107.616 84.884C108.048 85.652 108.864 86.084 109.728 86.084H184.8C186.432 86.084 187.728 87.38 187.728 89.012V157.316C187.728 158.9 186.432 160.244 184.8 160.244ZM70.32 78.404C69.744 78.404 69.168 78.548 68.688 78.836C68.256 79.124 67.92 79.508 67.728 79.988L65.856 84.644C65.424 85.748 64.32 86.516 63.12 86.516H62.784C61.44 86.516 60.336 87.62 60.336 88.964V157.22C60.336 158.564 61.44 159.668 62.784 159.668H184.8C186.144 159.668 187.248 158.564 187.248 157.22V89.012C187.248 87.668 186.144 86.564 184.8 86.564H109.728C108.672 86.564 107.712 85.988 107.184 85.124L104.016 79.7C103.728 79.22 103.344 78.884 102.816 78.692C102.432 78.548 102.048 78.5 101.664 78.5H70.32V78.404Z" fill="#263238"/>
<path d="M94.56 86.084H75.024C74.064 86.084 73.248 85.316 73.248 84.308C73.248 83.348 74.016 82.532 74.976 82.532H94.56C95.52 82.532 96.336 83.3 96.336 84.308C96.336 85.316 95.52 86.084 94.56 86.084Z" fill="white"/>
<path d="M184.8 171.908H62.7839C61.296 171.908 60.0959 170.708 60.0959 169.22V100.916C60.0959 99.428 61.296 98.228 62.7839 98.228H63.1199C64.2239 98.228 65.2319 97.556 65.6159 96.548L67.488 91.892C67.68 91.364 68.0639 90.884 68.5439 90.596C69.0719 90.26 69.6959 90.116 70.2719 90.116H101.616C102.048 90.116 102.432 90.212 102.864 90.356C103.392 90.596 103.872 90.98 104.16 91.508L107.328 96.932C107.808 97.748 108.72 98.276 109.68 98.276H184.8C186.288 98.276 187.488 99.476 187.488 100.964V169.22C187.488 170.708 186.288 171.908 184.8 171.908Z" fill="#263238"/>
<path d="M184.8 172.148H62.784C61.152 172.148 59.856 170.852 59.856 169.22V100.916C59.856 99.284 61.152 97.988 62.784 97.988H63.12C64.128 97.988 65.04 97.364 65.424 96.452L67.296 91.796C67.536 91.22 67.92 90.692 68.496 90.404C69.072 90.068 69.696 89.876 70.368 89.876H101.712C102.144 89.876 102.624 89.972 103.008 90.116C103.632 90.356 104.112 90.788 104.448 91.364L107.616 96.788C108.048 97.556 108.864 97.988 109.728 97.988H184.8C186.432 97.988 187.728 99.284 187.728 100.916V169.172C187.728 170.852 186.432 172.148 184.8 172.148ZM62.784 98.468C61.44 98.468 60.336 99.572 60.336 100.916V169.172C60.336 170.516 61.44 171.62 62.784 171.62H184.8C186.144 171.62 187.248 170.516 187.248 169.172V100.916C187.248 99.572 186.144 98.468 184.8 98.468H109.728C108.672 98.468 107.712 97.892 107.184 97.028L104.016 91.604C103.728 91.124 103.344 90.788 102.816 90.548C102.432 90.404 102.048 90.356 101.664 90.356H70.32C69.744 90.356 69.168 90.5 68.688 90.788C68.256 91.076 67.872 91.46 67.728 91.94L65.856 96.596C65.424 97.7 64.32 98.468 63.12 98.468H62.784Z" fill="#263238"/>
<path d="M103.92 72.02L84.528 69.62C83.568 69.476 82.896 68.612 82.992 67.652C83.136 66.692 84 66.02 84.96 66.116L104.352 68.516C105.312 68.612 105.984 69.524 105.888 70.484C105.744 71.444 104.88 72.164 103.92 72.02Z" fill="#5187D8"/>
<g opacity="0.5">
<path opacity="0.5" d="M103.92 72.02L84.528 69.62C83.568 69.476 82.896 68.612 82.992 67.652C83.136 66.692 84 66.02 84.96 66.116L104.352 68.516C105.312 68.612 105.984 69.524 105.888 70.484C105.744 71.444 104.88 72.164 103.92 72.02Z" fill="white"/>
</g>
<path d="M94.56 98.036H75.024C74.064 98.036 73.248 97.268 73.248 96.26C73.248 95.3 74.016 94.484 75.024 94.484H94.56C95.52 94.484 96.336 95.252 96.336 96.26C96.336 97.22 95.52 98.036 94.56 98.036Z" fill="#5187D8"/>
<g opacity="0.5">
<path opacity="0.5" d="M94.56 98.036H75.024C74.064 98.036 73.248 97.268 73.248 96.26C73.248 95.3 74.016 94.484 75.024 94.484H94.56C95.52 94.484 96.336 95.252 96.336 96.26C96.336 97.22 95.52 98.036 94.56 98.036Z" fill="white"/>
</g>
<path d="M58.7999 118.772H188.784C190.176 118.772 191.328 119.924 191.328 121.316V199.988C191.328 201.38 190.176 202.532 188.784 202.532H58.7999C57.4079 202.532 56.2559 201.38 56.2559 199.988V121.316C56.2559 119.924 57.4079 118.772 58.7999 118.772Z" fill="white"/>
<path d="M191.328 141.332C176.352 155.348 159.36 166.964 140.88 175.844C113.568 188.9 82.4161 197.876 64.2241 202.532H188.784C190.176 202.532 191.328 201.428 191.328 199.988V141.332Z" fill="#5187D8"/>
<g opacity="0.2">
<path opacity="0.2" d="M191.328 141.332C176.352 155.348 159.36 166.964 140.88 175.844C113.568 188.9 82.4161 197.876 64.2241 202.532H188.784C190.176 202.532 191.328 201.428 191.328 199.988V141.332Z" fill="white"/>
</g>
<path d="M188.784 202.724H58.7999C57.2639 202.724 56.0159 201.476 56.0159 199.94V121.316C56.0159 119.78 57.2639 118.532 58.7999 118.532H188.784C190.32 118.532 191.568 119.78 191.568 121.316V199.988C191.568 201.524 190.32 202.724 188.784 202.724ZM58.7999 119.012C57.5519 119.012 56.4959 120.02 56.4959 121.316V199.988C56.4959 201.236 57.5039 202.292 58.7999 202.292H188.784C190.032 202.292 191.088 201.284 191.088 199.988V121.316C191.088 120.068 190.08 119.012 188.784 119.012H58.7999Z" fill="#263238"/>
<path d="M58.4641 126.116H57.9841V122.756C57.9841 121.22 59.2321 119.972 60.7681 119.972H66.2401V120.452H60.7201C59.4721 120.452 58.4161 121.46 58.4161 122.756V126.116H58.4641Z" fill="#263238"/>
<path d="M58.4641 130.244H57.9841V177.188H58.4641V130.244Z" fill="#263238"/>
<path d="M186.816 201.284H182.4V200.804H186.816C188.064 200.804 189.12 199.796 189.12 198.5V193.172H189.6V198.5C189.6 200.036 188.352 201.236 186.816 201.284Z" fill="#263238"/>
<path d="M189.6 124.964H189.12V189.236H189.6V124.964Z" fill="#263238"/>
<path d="M103.728 149.396H143.904C144.624 149.396 145.2 149.972 145.2 150.692V171.188C145.2 171.908 144.624 172.484 143.904 172.484H103.728C103.008 172.484 102.432 171.908 102.432 171.188V150.692C102.384 149.972 102.96 149.396 103.728 149.396Z" fill="#263238"/>
<path d="M143.856 172.724H103.68C102.816 172.724 102.144 172.052 102.144 171.188V150.692C102.144 149.828 102.816 149.156 103.68 149.156H143.856C144.72 149.156 145.392 149.828 145.392 150.692V171.188C145.44 172.052 144.72 172.724 143.856 172.724ZM103.68 149.636C103.104 149.636 102.624 150.116 102.624 150.692V171.188C102.624 171.764 103.104 172.244 103.68 172.244H143.856C144.432 172.244 144.912 171.764 144.912 171.188V150.692C144.912 150.116 144.432 149.636 143.856 149.636H103.68Z" fill="#263238"/>
<path d="M103.728 149.396H143.904C144.624 149.396 145.2 149.972 145.2 150.692V155.108C145.2 155.828 144.624 156.404 143.904 156.404H103.728C103.008 156.404 102.432 155.828 102.432 155.108V150.692C102.384 149.972 102.96 149.396 103.728 149.396Z" fill="white"/>
<path d="M143.856 156.644H103.68C102.816 156.644 102.144 155.972 102.144 155.108V150.692C102.144 149.828 102.816 149.156 103.68 149.156H143.856C144.72 149.156 145.392 149.828 145.392 150.692V155.108C145.44 155.972 144.72 156.644 143.856 156.644ZM103.68 149.636C103.104 149.636 102.624 150.116 102.624 150.692V155.108C102.624 155.684 103.104 156.164 103.68 156.164H143.856C144.432 156.164 144.912 155.684 144.912 155.108V150.692C144.912 150.116 144.432 149.636 143.856 149.636H103.68Z" fill="#263238"/>
<path d="M65.7598 79.0761L66.6238 80.7081L68.4958 82.0521C68.7358 82.2441 69.0718 82.2441 69.3118 82.1001L69.4558 82.0041C69.6958 81.8601 69.7918 81.5241 69.6958 81.2841L68.6398 78.8361L69.3598 79.4121C69.5998 79.6041 69.9358 79.5561 70.1278 79.3161C70.2718 79.1241 70.2718 78.8361 70.1278 78.6441L68.4478 76.5321L66.3838 76.8681L65.7598 79.0761Z" fill="white"/>
<path d="M68.9279 82.436C68.7359 82.436 68.5439 82.388 68.3519 82.244L66.4319 80.852L65.4719 79.076L66.1439 76.58L68.4959 76.196L70.2719 78.404C70.5119 78.692 70.5119 79.124 70.2719 79.412C69.9839 79.748 69.5519 79.796 69.2159 79.556L69.8879 81.14C70.0319 81.524 69.9359 81.956 69.5519 82.148L69.4079 82.244C69.3119 82.388 69.1199 82.436 68.9279 82.436ZM66.8159 80.564L68.6399 81.86C68.7839 82.004 69.0239 82.004 69.1679 81.86L69.3119 81.764C69.4559 81.668 69.5039 81.476 69.4559 81.332L68.0159 78.02L69.4559 79.172C69.5999 79.268 69.7919 79.268 69.8879 79.124C69.9839 79.028 69.9839 78.836 69.8879 78.74L68.3039 76.724L66.5279 77.012L65.9519 79.028L66.8159 80.564Z" fill="#263238"/>
<path d="M69.5039 82.1C69.4559 82.1 69.4559 82.1 69.4079 82.052L67.7279 79.844C67.6799 79.796 67.6799 79.7 67.7279 79.652C67.7759 79.604 67.8719 79.604 67.9199 79.652L69.5999 81.86C69.6479 81.908 69.6479 82.004 69.5999 82.052C69.5519 82.1 69.5519 82.1 69.5039 82.1Z" fill="#263238"/>
<path d="M68.544 82.196C68.496 82.196 68.448 82.196 68.448 82.148L67.152 80.42C67.104 80.372 67.104 80.276 67.152 80.228C67.2 80.18 67.296 80.18 67.344 80.228L68.64 81.956C68.688 82.004 68.688 82.1 68.64 82.148C68.592 82.148 68.544 82.196 68.544 82.196Z" fill="#263238"/>
<path d="M93.2639 63.188L95.8559 63.332L99.0239 65.3481C99.0239 65.3481 99.2159 65.9721 98.7359 66.0681C98.2559 66.1641 95.9039 65.3001 95.9039 65.3001L93.3599 65.252L93.2639 63.188Z" fill="white"/>
<path d="M98.688 66.308C98.112 66.308 96.432 65.732 95.856 65.492L93.12 65.444L92.928 62.9L95.856 63.092L99.168 65.204L99.216 65.3C99.216 65.348 99.36 65.732 99.168 66.02C99.072 66.164 98.928 66.26 98.784 66.308C98.784 66.308 98.736 66.308 98.688 66.308ZM93.6 65.012L96 65.06C97.104 65.492 98.448 65.876 98.688 65.828C98.736 65.828 98.736 65.78 98.784 65.78C98.832 65.732 98.832 65.588 98.784 65.492L95.76 63.572L93.504 63.428L93.6 65.012Z" fill="#263238"/>
<path d="M93.3601 64.916L96.0961 66.164C96.0961 66.164 96.5281 65.54 95.9041 65.3L94.9921 64.676" fill="white"/>
<path d="M96.0962 66.404C96.0482 66.404 96.0482 66.404 96.0002 66.404L93.2642 65.156L93.4562 64.724L96.0002 65.876C96.0002 65.828 96.0482 65.732 96.0002 65.684C96.0002 65.684 95.9522 65.588 95.8082 65.54L94.8482 64.916L95.1362 64.532L96.0482 65.156C96.2882 65.252 96.4322 65.444 96.4802 65.588C96.5762 65.972 96.3362 66.308 96.2882 66.356C96.2882 66.356 96.1922 66.404 96.0962 66.404Z" fill="#263238"/>
<path d="M190.224 111.764L189.072 108.356L187.824 106.628C187.776 106.532 187.68 106.532 187.584 106.58C187.536 106.628 187.488 106.676 187.488 106.724V111.764L188.448 113.012L190.224 111.764Z" fill="white"/>
<path d="M208.656 126.548L199.152 126.884C198.432 126.932 197.76 126.5 197.424 125.876L190.176 111.716C190.176 111.716 188.544 112.58 188.4 112.964C188.256 113.348 193.776 127.124 195.456 131.348C195.744 132.068 196.464 132.548 197.232 132.5L207.84 132.068" fill="white"/>
<path d="M197.232 132.788C196.368 132.788 195.6 132.26 195.312 131.492L195.216 131.252C188.112 113.396 188.208 113.156 188.256 112.964C188.4 112.532 189.6 111.86 190.128 111.572L190.368 111.476L197.712 125.828C198 126.356 198.576 126.74 199.2 126.692L208.704 126.356V126.836L199.2 127.172C198.384 127.172 197.616 126.74 197.28 126.02L190.128 112.1C189.504 112.436 188.832 112.868 188.736 113.06C188.88 113.78 191.184 119.828 195.648 131.06L195.744 131.3C195.984 131.924 196.608 132.356 197.28 132.308L207.888 131.876V132.356L197.28 132.788H197.232Z" fill="#263238"/>
<path d="M189.504 114.308L189.36 113.972L190.848 113.348L190.992 113.684L189.504 114.308Z" fill="#263238"/>
<g opacity="0.5">
<g opacity="0.5">
<path opacity="0.5" d="M208.656 126.548L199.152 126.884C198.432 126.932 197.76 126.5 197.424 125.876L190.176 111.716C190.176 111.716 188.544 112.58 188.4 112.964C188.256 113.348 193.776 127.124 195.456 131.348C195.744 132.068 196.464 132.548 197.232 132.5L207.84 132.068" fill="#5187D8"/>
<path opacity="0.5" d="M197.232 132.788C196.368 132.788 195.6 132.26 195.312 131.492L195.216 131.252C188.112 113.396 188.208 113.156 188.256 112.964C188.4 112.532 189.6 111.86 190.128 111.572L190.368 111.476L197.712 125.828C198 126.356 198.576 126.74 199.2 126.692L208.704 126.356V126.836L199.2 127.172C198.384 127.172 197.616 126.74 197.28 126.02L190.128 112.1C189.504 112.436 188.832 112.868 188.736 113.06C188.88 113.78 191.184 119.828 195.648 131.06L195.744 131.3C195.984 131.924 196.608 132.356 197.28 132.308L207.888 131.876V132.356L197.28 132.788H197.232Z" fill="#263238"/>
</g>
<g opacity="0.5">
<path opacity="0.5" d="M189.504 114.308L189.36 113.972L190.848 113.348L190.992 113.684L189.504 114.308Z" fill="#263238"/>
</g>
</g>
<path d="M190.224 111.764L189.072 108.356L187.824 106.628C187.776 106.532 187.68 106.532 187.584 106.58C187.536 106.628 187.488 106.676 187.488 106.724V111.764L188.448 113.012L190.224 111.764Z" fill="#5187D8"/>
<g opacity="0.5">
<path opacity="0.5" d="M190.224 111.764L189.072 108.356L187.824 106.628C187.776 106.532 187.68 106.532 187.584 106.58C187.536 106.628 187.488 106.676 187.488 106.724V111.764L188.448 113.012L190.224 111.764Z" fill="white"/>
</g>
<path d="M188.4 113.348L187.248 111.812V106.724C187.248 106.58 187.296 106.436 187.44 106.388C187.632 106.244 187.872 106.292 188.016 106.484L189.312 108.26L190.512 111.812L188.4 113.348ZM187.728 111.668L188.496 112.676L189.936 111.668L188.88 108.5L187.728 106.964V111.668Z" fill="#263238"/>
<path d="M211.632 117.62C211.152 118.196 210.864 118.868 210.672 119.588C210.528 120.5 210.768 124.052 210.768 124.052L205.824 124.628C205.824 124.628 206.208 121.028 206.208 120.404C206.544 118.916 207.504 117.62 208.8 116.852C210.48 116.036 211.92 116.42 211.632 117.62Z" fill="white"/>
<g opacity="0.5">
<path opacity="0.5" d="M211.584 117.668C210.672 117.428 209.616 117.14 208.656 116.948C207.36 117.716 206.448 118.964 206.16 120.404C206.16 120.644 206.112 121.316 206.016 122.036C206.496 121.94 207.264 121.748 207.84 121.652C208.272 121.556 208.752 121.46 209.184 121.316L208.992 124.196H209.088L210.72 124.004C210.72 124.004 210.48 120.452 210.624 119.54C210.816 118.868 211.152 118.196 211.584 117.668Z" fill="#5187D8"/>
</g>
<path d="M205.536 124.868L205.584 124.58C205.584 124.532 205.968 120.98 205.968 120.404C206.304 118.772 207.312 117.428 208.704 116.66C209.856 116.084 210.96 116.036 211.536 116.516C211.872 116.804 211.968 117.236 211.824 117.716L211.776 117.812C211.344 118.388 211.008 119.012 210.864 119.684C210.72 120.548 210.96 124.052 210.96 124.1V124.34L205.536 124.868ZM210.48 116.66C210.048 116.66 209.52 116.756 208.944 117.092C207.696 117.812 206.784 119.06 206.448 120.5C206.448 120.98 206.16 123.524 206.112 124.388L210.528 123.908C210.48 123.092 210.336 120.404 210.48 119.636C210.672 118.868 211.008 118.196 211.44 117.62C211.488 117.332 211.44 117.14 211.296 116.996C211.056 116.756 210.816 116.66 210.48 116.66Z" fill="#263238"/>
<path d="M212.64 118.244C216.72 112.82 206.88 107.204 204.24 112.58C203.856 113.252 203.568 113.924 203.376 114.692C202.992 114.932 201.936 115.556 201.744 115.748C201.552 115.94 202.224 116.372 202.608 116.612C201.888 118.34 202.032 120.164 202.224 120.596C202.56 121.316 204.288 121.316 205.44 121.124C206.592 120.932 207.024 119.828 207.36 119.54C207.696 119.252 209.328 119.636 209.904 119.78C210.48 119.924 211.824 119.3 212.64 118.244Z" fill="white"/>
<g opacity="0.5">
<path opacity="0.5" d="M208.56 117.716C208.56 117.716 208.656 118.148 207.84 118.436C207.024 118.724 206.832 118.532 206.592 119.108C206.4 119.876 205.728 120.452 204.96 120.596C204.192 120.74 203.376 120.836 202.608 120.884C203.28 121.268 204.576 121.22 205.488 121.076C206.64 120.884 207.072 119.78 207.408 119.492C207.744 119.204 209.376 119.588 209.952 119.732C210.096 119.78 210.24 119.78 210.384 119.732C210.624 119.252 210.72 118.724 210.768 118.196L208.56 117.716Z" fill="#5187D8"/>
</g>
<path d="M204.096 121.412C203.184 121.412 202.272 121.22 201.984 120.644C201.744 120.164 201.648 118.388 202.32 116.66C201.504 116.132 201.504 115.94 201.504 115.796C201.504 115.7 201.552 115.604 201.6 115.508C201.744 115.364 202.272 115.028 203.184 114.452C203.376 113.732 203.664 113.06 204.048 112.388C204.768 110.9 206.064 110.084 207.744 110.084H207.792C210 110.084 212.4 111.524 213.408 113.492C214.224 115.076 213.984 116.756 212.88 118.292C212.016 119.444 210.624 120.068 209.904 119.876C208.944 119.588 207.744 119.444 207.552 119.588C207.504 119.636 207.408 119.78 207.312 119.924C206.976 120.404 206.448 121.076 205.536 121.268C205.104 121.364 204.624 121.412 204.096 121.412ZM202.032 115.844C202.128 115.94 202.368 116.132 202.752 116.372L202.944 116.468L202.848 116.66C202.176 118.292 202.272 120.068 202.464 120.452C202.704 120.98 204.192 121.076 205.44 120.836C206.208 120.692 206.592 120.116 206.928 119.684C207.024 119.54 207.168 119.396 207.264 119.3C207.792 118.82 209.952 119.492 210.048 119.492C210.528 119.636 211.728 119.108 212.496 118.1C213.84 116.372 213.504 114.788 212.976 113.78C212.064 111.956 209.856 110.612 207.792 110.612C207.792 110.612 207.792 110.612 207.744 110.612C206.256 110.612 205.104 111.332 204.48 112.676C204.144 113.348 203.856 114.02 203.664 114.74L203.616 114.836L203.52 114.884C202.8 115.316 202.224 115.652 202.032 115.844Z" fill="#263238"/>
<path d="M204.624 115.124C204.528 115.364 204.336 115.508 204.24 115.46C204.144 115.412 204.096 115.172 204.24 114.932C204.384 114.692 204.528 114.548 204.624 114.596C204.72 114.644 204.72 114.884 204.624 115.124Z" fill="#263238"/>
<path d="M205.104 114.308C205.056 114.308 205.008 114.26 205.008 114.212C204.96 113.828 204.864 113.732 204.816 113.732C204.72 113.684 204.624 113.78 204.624 113.78C204.576 113.828 204.48 113.828 204.432 113.78C204.384 113.732 204.384 113.636 204.432 113.588C204.528 113.54 204.672 113.444 204.864 113.492C205.056 113.588 205.152 113.78 205.2 114.164C205.248 114.212 205.2 114.308 205.104 114.308Z" fill="#263238"/>
<path d="M203.376 118.1C202.416 118.1 202.368 117.524 202.368 117.524C202.368 117.476 202.416 117.428 202.464 117.428C202.512 117.428 202.56 117.476 202.56 117.524C202.56 117.524 202.608 117.908 203.328 117.908C203.376 117.908 203.424 117.956 203.424 118.004C203.424 118.052 203.472 118.1 203.376 118.1Z" fill="#263238"/>
<path d="M201.36 148.916L200.976 153.62C200.976 153.62 198.336 172.292 198.48 174.452C198.624 176.612 198.912 198.74 198.912 198.74L202.08 199.22L205.632 174.644L210.624 149.684L201.36 148.916Z" fill="#5187D8"/>
<path d="M202.272 199.556L198.672 198.98V198.788C198.672 198.548 198.384 176.612 198.288 174.5C198.144 172.34 200.688 154.388 200.784 153.62L201.168 148.676L210.912 149.492L205.824 174.74L202.272 199.556ZM199.104 198.548L201.84 198.98L205.344 174.644L210.288 149.924L201.552 149.204L201.168 153.668C201.12 153.86 198.528 172.388 198.672 174.452C198.816 176.468 199.104 196.34 199.104 198.548Z" fill="#263238"/>
<g opacity="0.2">
<path opacity="0.2" d="M201.36 148.916L200.976 153.62C200.976 153.62 198.336 172.292 198.48 174.452C198.624 176.612 198.912 198.74 198.912 198.74L202.08 199.22L205.632 174.644L210.624 149.684L201.36 148.916Z" fill="#263238"/>
</g>
<path d="M201.12 198.308L200.784 198.26C200.784 198.212 202.128 191.204 202.128 187.508V187.46C202.128 183.716 202.128 180.164 203.04 176.66C203.952 173.204 205.152 166.1 205.152 166.004L205.488 166.052C205.488 166.1 204.24 173.252 203.376 176.708C202.464 180.164 202.464 183.668 202.464 187.412V187.46C202.512 191.204 201.12 198.212 201.12 198.308Z" fill="#263238"/>
<path d="M207.792 147.764C209.856 146.66 212.112 145.94 212.736 147.38C213.984 150.308 212.496 154.724 212.496 154.724L213.648 175.124L215.76 199.7L212.592 199.172C212.592 199.172 207.744 178.436 206.976 177.14C206.208 175.844 205.008 158.084 205.008 158.084L202.608 155.924" fill="#5187D8"/>
<path d="M216 200.036L212.352 199.46L212.304 199.316C210.96 193.556 207.312 178.388 206.736 177.38C205.968 176.132 204.912 160.58 204.768 158.324L202.416 156.212L202.752 155.876L205.2 158.132V158.228C205.68 165.332 206.592 176.276 207.12 177.14C207.84 178.388 212.256 197.012 212.736 199.076L215.424 199.508L213.312 175.22L212.16 154.772V154.724C212.16 154.676 213.648 150.356 212.4 147.572C212.256 147.284 212.064 147.092 211.776 146.996C211.008 146.708 209.616 147.092 207.792 148.052L207.552 147.62C209.568 146.564 211.008 146.228 211.92 146.516C212.352 146.66 212.64 146.948 212.832 147.38C214.08 150.212 212.784 154.34 212.592 154.82L213.744 175.172L216 200.036Z" fill="#263238"/>
<g opacity="0.2">
<g opacity="0.2">
<path opacity="0.2" d="M207.792 147.764C209.856 146.66 212.112 145.94 212.736 147.38C213.984 150.308 212.496 154.724 212.496 154.724L213.648 175.124L215.76 199.7L212.592 199.172C212.592 199.172 207.744 178.436 206.976 177.14C206.208 175.844 205.008 158.084 205.008 158.084L202.608 155.924" fill="#263238"/>
</g>
</g>
<path d="M214.32 198.116C214.32 198.02 213.408 189.38 212.064 183.236C211.056 178.532 211.104 178.292 211.248 177.86C211.296 177.716 211.296 177.62 211.296 177.284C211.296 177.044 211.296 176.756 211.296 176.42C211.344 174.98 211.344 172.772 211.008 171.572C210.432 169.652 210.144 166.964 210.096 163.268H210.48C210.528 166.916 210.816 169.604 211.392 171.476C211.776 172.772 211.728 174.98 211.728 176.42C211.728 176.756 211.728 177.044 211.728 177.284C211.728 177.668 211.68 177.812 211.632 177.956C211.536 178.292 211.44 178.58 212.496 183.188C213.84 189.38 214.752 198.02 214.8 198.116H214.32Z" fill="#263238"/>
<path d="M210.432 160.868H210.048V159.764C210.192 153.716 210.096 153.044 210.048 152.996L210.192 152.948L210.048 152.852L210.24 152.756C210.432 152.804 210.528 152.804 210.384 159.764V160.868H210.432Z" fill="#263238"/>
<path d="M203.376 156.212C203.328 156.212 203.28 156.212 203.232 156.164L202.512 155.3C202.464 155.252 202.464 155.204 202.464 155.108L202.944 153.62L203.04 151.508C203.04 151.412 203.136 151.316 203.232 151.316C203.328 151.316 203.424 151.412 203.424 151.508L203.328 153.668V153.716L202.848 155.108L203.52 155.876C203.568 155.972 203.568 156.068 203.52 156.116C203.424 156.212 203.424 156.212 203.376 156.212Z" fill="#263238"/>
<path d="M205.536 153.956C203.136 153.956 202.176 152.996 202.128 152.948C202.08 152.9 202.08 152.756 202.128 152.708C202.176 152.66 202.32 152.66 202.368 152.708C202.368 152.708 203.616 153.86 206.688 153.524C206.784 153.524 206.88 153.572 206.88 153.668C206.88 153.764 206.832 153.86 206.736 153.86C206.304 153.908 205.872 153.956 205.536 153.956Z" fill="#263238"/>
<path d="M209.856 151.748C212.256 151.268 212.4 150.596 213.216 150.068C213.216 149.156 213.072 148.244 212.736 147.428C212.112 145.988 209.856 146.708 207.792 147.812L206.784 149.396L201.36 148.964L201.168 151.076C204 151.988 206.928 152.228 209.856 151.748Z" fill="#263238"/>
<path d="M201.888 150.404L201.84 151.22L203.232 151.556L203.328 150.452L201.888 150.404Z" fill="white"/>
<path d="M203.376 151.796L201.648 151.412L201.744 150.26L203.52 150.308L203.376 151.796ZM202.032 151.076L203.04 151.316L203.088 150.596L202.032 150.548V151.076Z" fill="#263238"/>
<path d="M211.488 151.652L211.248 149.54L211.92 149.3L212.304 151.172" fill="#5187D8"/>
<path d="M211.248 151.652L211.008 149.396L212.112 149.012L212.544 151.124L212.064 151.22L211.776 149.636L211.488 149.732L211.728 151.604L211.248 151.652Z" fill="#263238"/>
<path d="M206.112 152.324L205.632 149.876H206.832L207.264 151.988" fill="#5187D8"/>
<path d="M205.872 152.372L205.344 149.636H207.024L207.504 151.94L207.024 152.036L206.64 150.116H205.92L206.352 152.324L205.872 152.372Z" fill="#263238"/>
<g opacity="0.2">
<g opacity="0.2">
<path opacity="0.2" d="M211.488 151.652L211.248 149.54L211.92 149.3L212.304 151.172" fill="#263238"/>
</g>
<g opacity="0.2">
<path opacity="0.2" d="M206.112 152.324L205.632 149.876H206.832L207.264 151.988" fill="#263238"/>
</g>
</g>
<path d="M200.736 130.34C200.736 130.34 200.352 132.98 199.152 137.54C197.952 142.1 196.752 147.524 196.752 147.524L197.424 150.308L199.392 147.38L200.736 130.34Z" fill="#263238"/>
<path d="M197.28 150.884L196.464 147.524V147.476C196.464 147.428 197.664 142.004 198.864 137.492C200.064 133.028 200.448 130.34 200.448 130.34L200.928 130.388L199.584 147.476L197.28 150.884ZM196.992 147.476L197.52 149.684L199.152 147.236L200.16 134.276C199.92 135.236 199.68 136.34 199.344 137.54C198.24 141.812 197.136 146.9 196.992 147.476Z" fill="#263238"/>
<path d="M204.048 126.452C204.048 126.452 201.264 127.124 200.976 128.42C200.832 129.044 200.736 129.668 200.688 130.292L204.96 126.836L210.288 124.724L204.048 126.452Z" fill="#263238"/>
<path d="M200.448 130.868L200.496 130.34C200.544 129.716 200.64 129.044 200.784 128.42C201.072 126.98 203.856 126.308 204 126.26L210.24 124.532L210.384 124.964L205.104 127.076L200.448 130.868ZM206.208 126.116L204.144 126.692C203.424 126.884 201.456 127.556 201.264 128.516C201.168 128.948 201.072 129.38 201.024 129.812L204.912 126.692L206.208 126.116Z" fill="#263238"/>
<path d="M204.816 125.444C204.816 125.444 202.56 128.036 201.648 129.044C200.736 130.052 200.736 141.428 200.736 143.108C200.736 144.788 199.824 149.3 201.36 150.212C202.896 151.124 212.112 150.836 212.976 149.3C213.84 147.764 214.464 129.668 214.32 127.988C214.08 126.452 213.12 125.156 211.728 124.532C210.72 124.052 204.816 125.444 204.816 125.444Z" fill="white"/>
<g opacity="0.5">
<path opacity="0.5" d="M211.776 124.532C211.632 124.484 211.536 124.436 211.392 124.436L210.72 124.772C211.824 125.684 212.592 126.932 212.88 128.324C213.168 130.34 213.168 132.404 212.784 134.42C212.448 136.628 207.168 134.42 208.176 135.236C209.184 136.052 212.88 137.444 213.024 138.212C213.168 138.98 211.2 140.18 210.48 140.276C209.76 140.372 210.96 142.004 211.728 143.396C212.496 144.788 212.208 146.756 210.48 148.1C208.752 149.444 204.768 150.068 203.088 150.164C202.512 150.164 202.176 150.308 202.08 150.452C204.72 151.028 212.208 150.644 213.024 149.3C213.936 147.812 214.512 129.668 214.368 127.988C214.128 126.5 213.168 125.204 211.776 124.532Z" fill="#5187D8"/>
</g>
<path d="M205.488 150.98C203.52 150.98 201.84 150.788 201.216 150.452C199.92 149.684 200.208 146.804 200.4 144.692C200.448 144.068 200.496 143.54 200.496 143.156C200.496 138.26 200.64 129.908 201.456 128.948C202.368 127.892 204.624 125.348 204.624 125.3L204.672 125.252H204.768C205.392 125.108 210.768 123.86 211.872 124.34C213.312 125.06 214.32 126.404 214.56 127.988C214.704 129.572 214.176 147.812 213.168 149.444C212.928 149.828 212.304 150.164 211.296 150.404C209.808 150.788 207.504 150.98 205.488 150.98ZM204.96 125.636C204.624 126.02 202.656 128.228 201.84 129.188C201.312 129.812 200.976 135.236 200.976 143.108C200.976 143.492 200.928 144.068 200.88 144.692C200.688 146.564 200.448 149.396 201.456 149.972C202.512 150.596 208.08 150.644 211.2 149.876C212.352 149.588 212.688 149.3 212.784 149.156C213.648 147.716 214.272 129.62 214.128 127.988C213.936 126.548 213.024 125.348 211.68 124.724C210.96 124.436 207.216 125.108 204.96 125.636Z" fill="#263238"/>
<path d="M209.472 136.916C207.024 136.148 204.912 134.036 204.912 134.036C205.44 136.58 206.928 138.788 209.04 140.276" fill="white"/>
<path d="M208.992 140.468C208.944 140.468 208.896 140.468 208.896 140.42C206.736 138.884 205.248 136.628 204.72 134.084C204.72 133.988 204.72 133.94 204.816 133.892C204.864 133.844 204.96 133.844 205.008 133.94C205.008 133.94 207.12 136.052 209.52 136.772C209.616 136.82 209.664 136.916 209.616 137.012C209.568 137.108 209.472 137.156 209.376 137.108C207.552 136.532 205.92 135.236 205.2 134.612C205.824 136.868 207.168 138.836 209.088 140.18C209.184 140.228 209.184 140.372 209.136 140.42C209.136 140.468 209.088 140.468 208.992 140.468Z" fill="#263238"/>
<path d="M211.296 122.852L204.048 124.532L203.616 126.644L211.776 124.532L211.296 122.852Z" fill="white"/>
<path d="M203.28 126.98L203.856 124.34L211.488 122.612L212.064 124.724L203.28 126.98ZM204.288 124.724L203.952 126.308L211.488 124.34L211.152 123.14L204.288 124.724Z" fill="#263238"/>
<path d="M202.464 202.436L202.032 199.268L198.864 198.74L196.272 200.612L193.872 201.908V202.436H202.464Z" fill="#263238"/>
<path d="M202.752 202.676H193.632V201.764L196.128 200.42L198.816 198.5L202.272 199.028L202.752 202.676ZM194.112 202.196H202.176L201.792 199.46L198.912 198.98L196.368 200.804L194.112 202.052V202.196Z" fill="#263238"/>
<path d="M216.144 202.676L215.76 199.748L212.592 199.22L209.952 201.092L207.6 202.388V202.676H216.144Z" fill="#263238"/>
<path d="M216.432 202.916H207.36V202.244L209.856 200.852L212.544 198.932L216 199.508L216.432 202.916ZM207.984 202.436H215.856L215.52 199.94L212.64 199.46L210.096 201.284L207.984 202.436Z" fill="#263238"/>
<path d="M188.832 108.98L186.864 107.828C186.864 107.828 186.096 107.732 186.432 108.596L188.4 110.084" fill="white"/>
<path d="M188.4 110.324C188.352 110.324 188.304 110.324 188.256 110.276L186.288 108.788C186.24 108.74 186.24 108.74 186.192 108.692C186.048 108.356 186.048 108.068 186.24 107.828C186.48 107.54 186.864 107.588 186.912 107.588C186.96 107.588 186.96 107.588 187.008 107.636L188.976 108.74C189.072 108.788 189.12 108.932 189.072 109.076C189.024 109.172 188.88 109.22 188.736 109.172L186.816 108.068C186.768 108.068 186.672 108.068 186.624 108.116C186.576 108.164 186.576 108.26 186.624 108.404L188.496 109.844C188.592 109.94 188.64 110.084 188.544 110.18C188.544 110.324 188.448 110.324 188.4 110.324Z" fill="#263238"/>
<path d="M188.544 111.908C188.448 111.668 188.304 111.476 188.16 111.284L187.776 110.9L185.808 108.452C185.808 108.452 185.184 108.02 185.328 108.932L186.576 111.332L184.416 109.268C184.416 109.268 183.984 108.932 183.984 109.412C183.984 109.892 185.952 112.004 185.952 112.004L183.744 110.996C183.744 110.996 183.264 111.332 183.6 111.668C183.936 112.004 185.76 112.676 185.76 112.676L184.128 112.628C184.128 112.628 183.648 113.06 183.984 113.156C184.32 113.252 186.24 113.684 186.24 113.684C186.48 113.876 186.768 114.068 187.056 114.164L187.536 115.076L189.36 114.164L188.544 111.908Z" fill="white"/>
<path d="M187.584 115.316C187.488 115.316 187.44 115.268 187.392 115.172L186.96 114.356C186.672 114.26 186.432 114.116 186.192 113.924C185.808 113.828 184.272 113.492 183.936 113.396C183.744 113.3 183.696 113.156 183.648 113.06C183.6 112.772 183.888 112.484 183.984 112.436C184.032 112.388 184.08 112.388 184.128 112.388H184.416C183.984 112.196 183.6 112.004 183.408 111.812C183.216 111.62 183.216 111.476 183.216 111.332C183.264 110.996 183.552 110.804 183.552 110.756C183.6 110.708 183.696 110.708 183.792 110.756L184.896 111.284C184.272 110.564 183.648 109.748 183.648 109.412C183.648 109.124 183.792 108.98 183.888 108.932C184.128 108.836 184.368 109.028 184.464 109.076L185.664 110.18L185.088 109.028C185.088 109.028 185.088 108.98 185.088 108.932C185.088 108.788 184.992 108.356 185.28 108.164C185.568 107.972 185.856 108.212 185.904 108.212L185.952 108.26L187.92 110.708L188.256 111.092C188.448 111.284 188.592 111.524 188.688 111.812L189.552 114.068C189.6 114.164 189.552 114.308 189.456 114.356L187.632 115.268C187.632 115.316 187.584 115.316 187.584 115.316ZM184.176 112.964C184.512 113.06 185.616 113.348 186.336 113.492C186.384 113.492 186.432 113.54 186.432 113.54C186.672 113.732 186.912 113.876 187.2 113.972C187.248 113.972 187.296 114.02 187.344 114.068L187.728 114.74L189.168 114.02L188.4 112.004C188.304 111.812 188.208 111.62 188.064 111.476L187.68 111.092L185.712 108.644C185.664 108.644 185.616 108.596 185.616 108.596C185.616 108.596 185.616 108.692 185.616 108.836L186.816 111.188C186.864 111.284 186.816 111.428 186.768 111.476C186.672 111.524 186.528 111.524 186.48 111.476L184.32 109.412C184.416 109.748 185.376 110.9 186.24 111.812C186.336 111.908 186.336 112.004 186.24 112.1C186.192 112.196 186.048 112.244 185.952 112.196L183.888 111.236C183.84 111.284 183.84 111.332 183.84 111.38C183.84 111.38 183.84 111.428 183.888 111.476C184.128 111.716 185.28 112.196 186 112.436C186.096 112.484 186.192 112.58 186.144 112.724C186.144 112.82 186 112.916 185.904 112.916L184.368 112.868C184.224 112.916 184.176 112.916 184.176 112.964Z" fill="#263238"/>
<path d="M208.176 133.22L197.232 135.812C196.08 136.004 194.928 135.38 194.496 134.276L187.584 115.076L189.408 114.164L197.04 128.324C197.376 128.996 198.144 129.332 198.864 129.188L207.264 126.836" fill="white"/>
<path d="M196.8 136.052C195.696 136.052 194.688 135.38 194.256 134.324L187.248 114.932L189.504 113.828L197.28 128.18C197.568 128.756 198.24 129.044 198.864 128.948L207.216 126.596L207.36 127.076L198.96 129.428C198.096 129.62 197.232 129.188 196.848 128.42L189.312 114.5L187.872 115.22L194.736 134.228C195.12 135.188 196.128 135.764 197.184 135.62L208.128 133.076L208.224 133.556L197.28 136.1C197.088 136.052 196.944 136.052 196.8 136.052Z" fill="#263238"/>
<path d="M190.393 115.759L188.247 116.834L188.419 117.177L190.565 116.102L190.393 115.759Z" fill="#263238"/>
<path d="M206.784 112.628C206.784 112.628 205.632 113.78 206.208 114.644C206.544 115.172 206.832 115.7 206.976 116.276C206.976 116.276 206.496 117.428 206.88 117.428C207.264 117.428 207.072 116.564 207.744 116.756C208.416 116.948 209.088 118.1 208.512 118.484C208.08 118.724 207.6 118.916 207.12 119.06C206.928 119.108 206.832 119.3 206.88 119.444C206.928 119.54 206.976 119.588 207.024 119.636C207.648 120.068 208.368 120.308 209.136 120.404C209.76 120.404 210.384 120.356 210.96 120.212C210.96 120.212 212.88 117.572 214.272 116.9C215.664 116.228 215.04 113.108 215.04 112.724C215.04 112.34 213.696 111.476 213.696 111.476C213.696 111.476 214.08 110.612 212.352 108.644C210.624 106.676 207.312 106.292 207.216 107.012C207.168 107.396 207.312 107.732 207.6 107.972C207.6 107.972 204.672 106.724 203.328 108.068C201.984 109.412 206.784 112.628 206.784 112.628Z" fill="#263238"/>
<path d="M209.376 120.74C209.328 120.74 209.28 120.74 209.232 120.74C208.416 120.644 207.648 120.356 206.976 119.924C206.88 119.876 206.784 119.732 206.736 119.588C206.64 119.3 206.832 118.964 207.12 118.868C207.6 118.724 208.032 118.532 208.464 118.292C208.464 118.292 208.608 118.196 208.56 117.956C208.512 117.572 208.08 117.092 207.744 116.996C207.552 116.948 207.552 116.948 207.456 117.236C207.408 117.428 207.264 117.716 206.928 117.716C206.784 117.716 206.688 117.668 206.64 117.572C206.448 117.284 206.64 116.708 206.784 116.324C206.64 115.796 206.4 115.268 206.064 114.836C205.536 114.068 206.16 113.108 206.496 112.724C205.68 112.148 203.136 110.324 202.992 108.932C202.944 108.596 203.04 108.308 203.28 108.068C204.336 107.012 206.112 107.348 207.12 107.684C207.072 107.492 207.072 107.348 207.12 107.156C207.12 107.06 207.216 106.82 207.552 106.724C208.464 106.436 211.104 106.964 212.64 108.692C214.032 110.228 214.128 111.14 214.08 111.572C214.608 111.956 215.424 112.532 215.424 112.964C215.424 113.012 215.424 113.108 215.472 113.252C215.568 114.26 215.856 116.66 214.512 117.332C213.216 118.004 211.296 120.548 211.296 120.548L211.2 120.5H211.104C210.576 120.644 209.952 120.74 209.376 120.74ZM207.6 116.516C207.696 116.516 207.744 116.516 207.84 116.564C208.368 116.708 208.896 117.332 208.992 117.956C209.04 118.292 208.944 118.58 208.656 118.772C208.176 119.012 207.696 119.252 207.216 119.396C207.168 119.396 207.168 119.444 207.168 119.492C207.168 119.492 207.168 119.54 207.216 119.54C207.84 119.972 208.512 120.212 209.232 120.26C209.808 120.26 210.336 120.212 210.912 120.116C211.248 119.684 212.928 117.476 214.272 116.804C215.28 116.276 215.04 114.068 214.944 113.204C214.944 113.012 214.896 112.916 214.896 112.82C214.848 112.676 214.272 112.148 213.648 111.764L213.456 111.668L213.552 111.476C213.552 111.476 213.792 110.66 212.256 108.932C211.008 107.54 208.944 107.012 207.936 107.06C207.648 107.06 207.504 107.156 207.504 107.156C207.456 107.444 207.552 107.732 207.792 107.876L209.664 109.22L207.552 108.308C207.504 108.308 204.768 107.108 203.568 108.356C203.424 108.5 203.376 108.644 203.376 108.836C203.472 109.988 205.968 111.812 206.928 112.436L207.168 112.58L206.976 112.772C206.976 112.772 205.968 113.828 206.4 114.5C206.736 115.028 207.024 115.604 207.216 116.228V116.324L207.168 116.42C207.12 116.564 207.072 116.708 207.024 116.9C207.168 116.708 207.312 116.516 207.6 116.516Z" fill="#263238"/>
<path d="M212.64 115.892C209.136 115.604 206.688 112.724 206.688 112.676C206.64 112.628 206.64 112.532 206.688 112.484C206.736 112.436 206.832 112.436 206.88 112.484C206.88 112.532 209.232 115.316 212.64 115.604C212.688 115.604 212.736 115.652 212.736 115.748C212.784 115.844 212.736 115.892 212.64 115.892Z" fill="white"/>
<path d="M211.632 117.716C211.584 117.716 211.584 117.716 211.632 117.716C209.232 117.236 207.792 116.132 207.024 115.268C206.16 114.356 205.872 113.54 205.872 113.492C205.872 113.444 205.872 113.348 205.968 113.348C206.016 113.348 206.112 113.348 206.112 113.444C206.112 113.492 207.264 116.564 211.68 117.476C211.728 117.476 211.776 117.572 211.776 117.62C211.728 117.716 211.68 117.716 211.632 117.716Z" fill="white"/>
</svg>
